entrega-grupal-diapos
…
datos_elecciones_tidy |> 
  filter(censo > 2000) |>
  group_by(fecha, id_mun) |>
  filter(siglas_comun == ganador| siglas_comun == segundo) |>
  arrange(desc(votos), .by_group = TRUE) |>
  ungroup() |>
  mutate(diferencia = votos - lag(votos)) |> 
  slice_tail(n = 1, by = c(fecha, id_mun)) |> 
  group_by(fecha) |> 
  arrange(diferencia, .by_group = TRUE) |> 
  ungroup() |>
  select(fecha, municipio, ganador, segundo, diferencia) |> 
  mutate(diferencia = abs(diferencia))

# A tibble: 11,618 × 5
   fecha   municipio                   ganador segundo diferencia
   <glue>  <chr>                       <fct>   <fct>        <dbl>
 1 2008-03 Madrid                      PP      PSOE        228121
 2 2008-03 Barcelona                   PSOE    CIU         184449
 3 2008-03 Murcia                      PP      PSOE         84045
 4 2008-03 València                    PP      PSOE         71186
 5 2008-03 Sevilla                     PSOE    PP           55676
 6 2008-03 Hospitalet de Llobregat, L' PSOE    PP           46851
 7 2008-03 Badalona                    PSOE    PP           36579
 8 2008-03 Sabadell                    PSOE    CIU          35008
 9 2008-03 Zaragoza                    PSOE    PP           34539
10 2008-03 Terrassa                    PSOE    CIU          32319
# ℹ 11,608 more rows
…
datos_elecciones_tidy |> 
  group_by(fecha, codigo_provincia) |>
  filter(siglas_comun == ganador| siglas_comun == segundo) |>
  arrange(desc(votos), .by_group = TRUE) |>
  ungroup() |>
  mutate(diferencia = votos - lag(votos)) |> 
  slice_tail(n = 1, by = c(fecha, codigo_provincia)) |> 
  group_by(fecha) |> 
  arrange(diferencia, .by_group = TRUE) |> 
  ungroup() |>
  select(fecha, codigo_provincia, ganador, segundo, diferencia) |> 
  mutate(diferencia = abs(diferencia))

# A tibble: 312 × 5
   fecha   codigo_provincia ganador segundo diferencia
   <glue>  <chr>            <fct>   <fct>        <dbl>
 1 2008-03 51               PP      PSOE          5473
 2 2008-03 52               PP      PSOE           404
 3 2008-03 30               PP      PSOE           147
 4 2008-03 36               PP      PSOE           140
 5 2008-03 11               PSOE    PP              65
 6 2008-03 38               PSOE    PP              60
 7 2008-03 27               PSOE    PP              53
 8 2008-03 07               PP      PSOE            40
 9 2008-03 15               PP      PSOE            28
10 2008-03 35               OTROS   PP              25
# ℹ 302 more rows
…
datos_elecciones_tidy |> 
  group_by(fecha, codigo_ccaa) |>
  filter(siglas_comun == ganador| siglas_comun == segundo) |>
  arrange(desc(votos), .by_group = TRUE) |>
  ungroup() |>
  mutate(diferencia = votos - lag(votos)) |> 
  slice_tail(n = 1, by = c(fecha, codigo_ccaa)) |> 
  group_by(fecha) |> 
  arrange(diferencia, .by_group = TRUE) |> 
  ungroup() |>
  select(fecha, codigo_ccaa, ganador, segundo, diferencia) |> 
  mutate(diferencia = abs(diferencia))

# A tibble: 114 × 5
   fecha   codigo_ccaa ganador segundo diferencia
   <glue>  <chr>       <fct>   <fct>        <dbl>
 1 2008-03 18          PP      PSOE          5473
 2 2008-03 19          PP      PSOE           404
 3 2008-03 15          PP      PSOE           147
 4 2008-03 11          PSOE    PP              41
 5 2008-03 04          PP      PSOE            40
 6 2008-03 03          PSOE    PP              11
 7 2008-03 05          OTROS   PP               7
 8 2008-03 10          PP      PSOE             6
 9 2008-03 01          PSOE    PP               5
10 2008-03 17          PP      CS               4
# ℹ 104 more rows
…
Luego, obtenemos los resultados.

Code

datos_elecciones_tidy_nulos |> 
  group_by(fecha) |>
  arrange(desc(porc_voto_nulos), .by_group = TRUE) |>
  ungroup() |> 
  select(fecha, municipio, porc_voto_nulos)

# A tibble: 48,737 × 3
   fecha   municipio              porc_voto_nulos
   <glue>  <chr>                            <dbl>
 1 2008-03 Encinasola                        54.9
 2 2008-03 Leaburu                           43.4
 3 2008-03 Requena de Campos                 40.9
 4 2008-03 Narrillos del Rebollar            40.5
 5 2008-03 Areatza                           34.3
 6 2008-03 Piérnigas                         32.4
 7 2008-03 Senan                             31.6
 8 2008-03 Barrachina                        31.4
 9 2008-03 Sarriés/Sartze                    30  
10 2008-03 Vilella Alta, La                  29.9
# ℹ 48,727 more rows
…
